\relax 
\providecommand\hyper@newdestlabel[2]{}
\providecommand\HyperFirstAtBeginDocument{\AtBeginDocument}
\HyperFirstAtBeginDocument{\ifx\hyper@anchor\@undefined
\global\let\oldcontentsline\contentsline
\gdef\contentsline#1#2#3#4{\oldcontentsline{#1}{#2}{#3}}
\global\let\oldnewlabel\newlabel
\gdef\newlabel#1#2{\newlabelxx{#1}#2}
\gdef\newlabelxx#1#2#3#4#5#6{\oldnewlabel{#1}{{#2}{#3}}}
\AtEndDocument{\ifx\hyper@anchor\@undefined
\let\contentsline\oldcontentsline
\let\newlabel\oldnewlabel
\fi}
\fi}
\global\let\hyper@last\relax 
\gdef\HyperFirstAtBeginDocument#1{#1}
\providecommand\HyField@AuxAddToFields[1]{}
\providecommand\HyField@AuxAddToCoFields[2]{}
\catcode `"\active 
\catcode `<\active 
\catcode `>\active 
\@nameuse{es@quoting}
\select@language{spanish}
\@writefile{toc}{\select@language{spanish}}
\@writefile{lof}{\select@language{spanish}}
\@writefile{lot}{\select@language{spanish}}
\newlabel{a3}{{}{1}{}{section*.1}{}}
\newlabel{qwer}{{}{1}{}{section*.1}{}}
\newlabel{fig:validate19}{{}{2}{}{section*.1}{}}
\newlabel{fig:sector19}{{}{2}{}{section*.1}{}}
\newlabel{fig:rnr}{{}{2}{}{section*.1}{}}
\newlabel{fig:sector19}{{}{3}{}{section*.1}{}}
\newlabel{fig:sector19}{{}{3}{}{section*.1}{}}
\newlabel{fig:sector19}{{}{4}{}{section*.1}{}}
\newlabel{fig:sector19}{{}{4}{}{section*.1}{}}
\newlabel{Eq:CI}{{1}{5}{}{equation.0.1}{}}
\newlabel{Eq:CIdef}{{2}{5}{}{equation.0.2}{}}
\newlabel{fig:sector19}{{}{6}{}{equation.0.2}{}}
\newlabel{fig:intervalo19}{{}{6}{}{equation.0.2}{}}
\newlabel{fig:sector19}{{}{6}{}{equation.0.2}{}}
\newlabel{fig:validate19}{{}{7}{}{equation.0.2}{}}
\newlabel{LastPage}{{}{8}{}{page.8}{}}
\xdef\lastpage@lastpage{8}
\xdef\lastpage@lastpageHy{8}
